[gd_scene load_steps=3 format=2]

[ext_resource path="res://scenes/arm.tscn" type="PackedScene" id=1]
[ext_resource path="res://scenes/tmp.tscn" type="PackedScene" id=2]

[node name="Node2D" type="Node2D"]

[node name="ViewportContainer" type="ViewportContainer" parent="."]
margin_right = 1920.0
margin_bottom = 1080.0
stretch = true

[node name="Viewport" type="Viewport" parent="ViewportContainer"]
size = Vector2( 1920, 1080 )
own_world = true
handle_input_locally = false
msaa = 2
render_target_update_mode = 3

[node name="root" parent="ViewportContainer/Viewport" instance=ExtResource( 1 )]

[node name="ViewportContainer2" type="ViewportContainer" parent="."]
margin_top = 1110.0
margin_right = 1920.0
margin_bottom = 2190.0
stretch = true

[node name="Viewport" type="Viewport" parent="ViewportContainer2"]
size = Vector2( 1920, 1080 )
own_world = true
handle_input_locally = false
msaa = 2
render_target_update_mode = 3

[node name="Spatial" parent="ViewportContainer2/Viewport" instance=ExtResource( 2 )]

